@startuml

' <!-- alex disable actor -->

actor writer

control VCS

database git [
    version
    control
    repository
]

control "Static Site Generator" as SSG

folder html [
    static web
    content
    files
]

control "Web server" as server

actor reader

writer --> VCS : Commit\nchanges

VCS --> git

git --> SSG

SSG --> html : Create static\ncontent files

html --> server

server --> reader : Serve static\ncontent

@enduml

@startuml ssg-workflow-H

actor writer

control VCS

database git [
    version
    control
    repository
]

control "Static Site Generator" as SSG

folder html [
    static web
    content
    files
]

control "Web server" as server

actor reader

writer -> VCS : Commit\nchanges

VCS -> git

git --> SSG

SSG -> html : Create static\ncontent files

html -> server

server -> reader : Serve static\ncontent

@enduml
